D:\SEM 7\DS_30644_Giurgi_Iacob\assigment4_UI\src\main\java\entities\Package.java
D:\SEM 7\DS_30644_Giurgi_Iacob\assigment4_UI\src\main\java\Main.java
D:\SEM 7\DS_30644_Giurgi_Iacob\assigment4_UI\src\main\java\services\IUserService.java
D:\SEM 7\DS_30644_Giurgi_Iacob\assigment4_UI\src\main\java\entities\Route.java
D:\SEM 7\DS_30644_Giurgi_Iacob\assigment4_UI\src\main\java\services\IRouterService.java
D:\SEM 7\DS_30644_Giurgi_Iacob\assigment4_UI\src\main\java\entities\User.java
D:\SEM 7\DS_30644_Giurgi_Iacob\assigment4_UI\src\main\java\services\IPackageService.java
